22
22
224
1111111111111111111111
1000100000000000010001
1010101110110111010101
1010101110110111010101
1000000000000000000001
1111010101111010101111
1111010101030010101111
1000010101001010100001
1011010101001010101101
1011010000000000101101
1011010111001110101101
1011010111001110101101
1011010000000000101101
1011010101011010101101
1040010101011010100501
1111010101000010101111
1111010101111010101111
1000000000000000000001
1010101110110111010101
1010101113110111010101
1000100000000000010001
1111111111111111111111